name: Public
description: ''
endpoints:
  -
    custom: []
    httpMethods:
      - GET
    uri: api/public/categories
    metadata:
      custom: []
      groupName: Public
      groupDescription: ''
      subgroup: Categories
      subgroupDescription: 'List and show categories'
      title: ''
      description: ''
      authenticated: false
      deprecated: false
    headers:
      Content-Type: application/json
      Accept: application/json
      Accept-Language: ar|en
    urlParameters: []
    cleanUrlParameters: []
    queryParameters: []
    cleanQueryParameters: []
    bodyParameters: []
    cleanBodyParameters: []
    fileParameters: []
    responses:
      -
        custom: []
        status: 200
        content: '{"success":true,"data":[],"meta":{"pagination":{"current_page":1,"per_page":15,"total":0,"last_page":1}}}'
        headers:
          cache-control: 'no-cache, private'
          content-type: application/json
          access-control-allow-origin: '*'
        description: null
    responseFields: []
    auth: []
    controller: null
    method: null
    route: null
  -
    custom: []
    httpMethods:
      - GET
    uri: 'api/public/categories/{category_uuid}'
    metadata:
      custom: []
      groupName: Public
      groupDescription: ''
      subgroup: Categories
      subgroupDescription: 'List and show categories'
      title: ''
      description: ''
      authenticated: false
      deprecated: false
    headers:
      Content-Type: application/json
      Accept: application/json
      Accept-Language: ar|en
    urlParameters:
      category_uuid:
        custom: []
        name: category_uuid
        description: ''
        required: true
        example: 66529e01-d113-3473-8d6f-9e11e09332ea
        type: string
        enumValues: []
        exampleWasSpecified: false
        nullable: false
        deprecated: false
    cleanUrlParameters:
      category_uuid: 66529e01-d113-3473-8d6f-9e11e09332ea
    queryParameters: []
    cleanQueryParameters: []
    bodyParameters: []
    cleanBodyParameters: []
    fileParameters: []
    responses:
      -
        custom: []
        status: 404
        content: '{"success":false,"message":"\u063a\u064a\u0631 \u0645\u0648\u062c\u0648\u062f"}'
        headers:
          cache-control: 'no-cache, private'
          content-type: application/json
          access-control-allow-origin: '*'
        description: null
    responseFields: []
    auth: []
    controller: null
    method: null
    route: null
  -
    custom: []
    httpMethods:
      - GET
    uri: api/public/subcategories
    metadata:
      custom: []
      groupName: Public
      groupDescription: ''
      subgroup: Subcategories
      subgroupDescription: 'List subcategories'
      title: ''
      description: ''
      authenticated: false
      deprecated: false
    headers:
      Content-Type: application/json
      Accept: application/json
      Accept-Language: ar|en
    urlParameters: []
    cleanUrlParameters: []
    queryParameters: []
    cleanQueryParameters: []
    bodyParameters: []
    cleanBodyParameters: []
    fileParameters: []
    responses:
      -
        custom: []
        status: 200
        content: '{"success":true,"data":[],"meta":{"pagination":{"current_page":1,"per_page":15,"total":0,"last_page":1}}}'
        headers:
          cache-control: 'no-cache, private'
          content-type: application/json
          access-control-allow-origin: '*'
        description: null
    responseFields: []
    auth: []
    controller: null
    method: null
    route: null
  -
    custom: []
    httpMethods:
      - GET
    uri: api/public/countries
    metadata:
      custom: []
      groupName: Public
      groupDescription: ''
      subgroup: Countries
      subgroupDescription: 'List and show countries'
      title: ''
      description: ''
      authenticated: false
      deprecated: false
    headers:
      Content-Type: application/json
      Accept: application/json
      Accept-Language: ar|en
    urlParameters: []
    cleanUrlParameters: []
    queryParameters: []
    cleanQueryParameters: []
    bodyParameters: []
    cleanBodyParameters: []
    fileParameters: []
    responses:
      -
        custom: []
        status: 200
        content: '{"success":true,"data":[{"uuid":"01KJXC7Y2BECXDFN24HWVFK4HN","name":"\u0645\u0635\u0631","cities_count":40,"cities":[{"uuid":"01KJXC933V6FX1KABG1RBN3CRB","name":"\u0627\u0644\u0642\u0627\u0647\u0631\u0629"},{"uuid":"01KJXC9340EX398PREQTGC6FRZ","name":"\u0627\u0644\u0625\u0633\u0643\u0646\u062f\u0631\u064a\u0629"},{"uuid":"01KJXC934H3HC7ZBVD3GADXXA6","name":"\u0627\u0644\u062c\u064a\u0632\u0629"},{"uuid":"01KJXC934PGYK83Y1DVKQ04MB4","name":"\u0634\u0628\u0631\u0627 \u0627\u0644\u062e\u064a\u0645\u0629"},{"uuid":"01KJXC934V02D4D85KC6HWASEP","name":"\u0628\u0648\u0631 \u0633\u0639\u064a\u062f"},{"uuid":"01KJXC934ZKNC4TRX6PSXSH2V1","name":"\u0627\u0644\u0633\u0648\u064a\u0633"},{"uuid":"01KJXC935FG2AK8R3FYHB7N1VF","name":"\u0627\u0644\u0623\u0642\u0635\u0631"},{"uuid":"01KJXC935MGXWRC3V4W0Y59EQZ","name":"\u0623\u0633\u0648\u0627\u0646"},{"uuid":"01KJXC935RGQRZADJNQM63GCCJ","name":"\u0637\u0646\u0637\u0627"},{"uuid":"01KJXC935XZ64Y85AW2X2FD3PZ","name":"\u0627\u0644\u0645\u0646\u0635\u0648\u0631\u0629"},{"uuid":"01KJXC936DQZE3HB47FF19X2J6","name":"\u0623\u0633\u064a\u0648\u0637"},{"uuid":"01KJXC936JN3ETRKB84R4VPFPD","name":"\u0627\u0644\u0625\u0633\u0645\u0627\u0639\u064a\u0644\u064a\u0629"},{"uuid":"01KJXC936QVT7FKKY1G1D28X24","name":"\u062f\u0645\u064a\u0627\u0637"},{"uuid":"01KJXC936VCX19DEGV02ANJQQD","name":"\u0627\u0644\u0632\u0642\u0627\u0632\u064a\u0642"},{"uuid":"01KJXC937BGGWJWRTTAQ2V39XN","name":"\u0642\u0646\u0627"},{"uuid":"01KJXC937FMQNRFG9ANGXM1G0Y","name":"\u0633\u0648\u0647\u0627\u062c"},{"uuid":"01KJXC937KK7JE7CYDMGQ7CT71","name":"\u0628\u0646\u0647\u0627"},{"uuid":"01KJXC9384977WCPMCSWX3K3W9","name":"\u0643\u0641\u0631 \u0627\u0644\u0634\u064a\u062e"},{"uuid":"01KJXC9389DHBJ7DT2G9C3GF47","name":"\u062f\u0645\u0646\u0647\u0648\u0631"},{"uuid":"01KJXC938D5CPMAKAQH9BVFDEN","name":"\u0627\u0644\u0645\u0646\u064a\u0627"},{"uuid":"01KJXC938Y8VVMYYESK0DKWP9P","name":"\u0628\u0646\u0649 \u0633\u0648\u064a\u0641"},{"uuid":"01KJXC93938FHYVC4WG34CNWFR","name":"\u0627\u0644\u0641\u064a\u0648\u0645"},{"uuid":"01KJXC93980TZTN7KTH49PHJ1D","name":"\u0627\u0644\u0645\u0646\u064a\u0627 \u0627\u0644\u062c\u062f\u064a\u062f\u0629"},{"uuid":"01KJXC939CDFJ3W03J8PYF4DPB","name":"\u0623\u0628\u0648 \u0642\u064a\u0631"},{"uuid":"01KJXC939Y4BX3B37Y8FR7KAT6","name":"\u0625\u062f\u0641\u0648"},{"uuid":"01KJXC93A3RC3P88G71TTPVS57","name":"\u0643\u0648\u0645 \u0623\u0645\u0628\u0648"},{"uuid":"01KJXC93A7D81M67XF5NBMM03H","name":"\u0623\u0633\u0648\u0627\u0646 \u0627\u0644\u062c\u062f\u064a\u062f\u0629"},{"uuid":"01KJXC93ASVQVA7BK6NCCS3T65","name":"\u0627\u0644\u063a\u0631\u062f\u0642\u0629"},{"uuid":"01KJXC93AYK0PZDKT0HJREJTR6","name":"\u0634\u0631\u0645 \u0627\u0644\u0634\u064a\u062e"},{"uuid":"01KJXC93BEYNHHV136096C45DK","name":"\u0645\u0631\u0633\u0649 \u0645\u0637\u0631\u0648\u062d"},{"uuid":"01KJXC93BKWZPMSX05FZV6P29N","name":"\u0627\u0644\u0639\u0631\u064a\u0634"},{"uuid":"01KJXC93BR5SW1VW9YMR549WE5","name":"\u0627\u0644\u0637\u0648\u0631"},{"uuid":"01KJXC93C7E3BZC9ZGR0DYFH27","name":"\u0633\u0641\u0627\u062c\u0627"},{"uuid":"01KJXC93CC07WZCT9GVG2GNMQE","name":"\u0627\u0644\u0645\u0646\u064a\u0627"},{"uuid":"01KJXC93CHXYEAQJX40KKG7HFW","name":"\u0623\u0628\u0648 \u062a\u064a\u062c"},{"uuid":"01KJXC93D2E9ADBC4QJE2FZ6Y8","name":"\u062f\u064a\u0631\u0648\u0637"},{"uuid":"01KJXC93D7VDQ189892Q0EH37S","name":"\u0645\u0644\u0648\u064a"},{"uuid":"01KJXC93DRY9WESZ1Z7F37NV6V","name":"\u0645\u0637\u0627\u064a"},{"uuid":"01KJXC93E1G4J62ZR1VS753GJ3","name":"\u0633\u0645\u0627\u0644\u0648\u0637"},{"uuid":"01KJXC93E6R6KF8HDHQ15B3XVV","name":"\u0623\u0628\u0648 \u0642\u0631\u0642\u0627\u0635"}]}],"meta":{"pagination":{"current_page":1,"per_page":15,"total":1,"last_page":1}}}'
        headers:
          cache-control: 'no-cache, private'
          content-type: application/json
          access-control-allow-origin: '*'
        description: null
    responseFields: []
    auth: []
    controller: null
    method: null
    route: null
  -
    custom: []
    httpMethods:
      - GET
    uri: 'api/public/countries/{country_uuid}'
    metadata:
      custom: []
      groupName: Public
      groupDescription: ''
      subgroup: Countries
      subgroupDescription: 'List and show countries'
      title: ''
      description: ''
      authenticated: false
      deprecated: false
    headers:
      Content-Type: application/json
      Accept: application/json
      Accept-Language: ar|en
    urlParameters:
      country_uuid:
        custom: []
        name: country_uuid
        description: ''
        required: true
        example: 01KJXC7Y2BECXDFN24HWVFK4HN
        type: string
        enumValues: []
        exampleWasSpecified: false
        nullable: false
        deprecated: false
    cleanUrlParameters:
      country_uuid: 01KJXC7Y2BECXDFN24HWVFK4HN
    queryParameters: []
    cleanQueryParameters: []
    bodyParameters: []
    cleanBodyParameters: []
    fileParameters: []
    responses:
      -
        custom: []
        status: 200
        content: '{"success":true,"data":{"uuid":"01KJXC7Y2BECXDFN24HWVFK4HN","name":"\u0645\u0635\u0631","cities_count":40,"cities":[{"uuid":"01KJXC933V6FX1KABG1RBN3CRB","name":"\u0627\u0644\u0642\u0627\u0647\u0631\u0629"},{"uuid":"01KJXC9340EX398PREQTGC6FRZ","name":"\u0627\u0644\u0625\u0633\u0643\u0646\u062f\u0631\u064a\u0629"},{"uuid":"01KJXC934H3HC7ZBVD3GADXXA6","name":"\u0627\u0644\u062c\u064a\u0632\u0629"},{"uuid":"01KJXC934PGYK83Y1DVKQ04MB4","name":"\u0634\u0628\u0631\u0627 \u0627\u0644\u062e\u064a\u0645\u0629"},{"uuid":"01KJXC934V02D4D85KC6HWASEP","name":"\u0628\u0648\u0631 \u0633\u0639\u064a\u062f"},{"uuid":"01KJXC934ZKNC4TRX6PSXSH2V1","name":"\u0627\u0644\u0633\u0648\u064a\u0633"},{"uuid":"01KJXC935FG2AK8R3FYHB7N1VF","name":"\u0627\u0644\u0623\u0642\u0635\u0631"},{"uuid":"01KJXC935MGXWRC3V4W0Y59EQZ","name":"\u0623\u0633\u0648\u0627\u0646"},{"uuid":"01KJXC935RGQRZADJNQM63GCCJ","name":"\u0637\u0646\u0637\u0627"},{"uuid":"01KJXC935XZ64Y85AW2X2FD3PZ","name":"\u0627\u0644\u0645\u0646\u0635\u0648\u0631\u0629"},{"uuid":"01KJXC936DQZE3HB47FF19X2J6","name":"\u0623\u0633\u064a\u0648\u0637"},{"uuid":"01KJXC936JN3ETRKB84R4VPFPD","name":"\u0627\u0644\u0625\u0633\u0645\u0627\u0639\u064a\u0644\u064a\u0629"},{"uuid":"01KJXC936QVT7FKKY1G1D28X24","name":"\u062f\u0645\u064a\u0627\u0637"},{"uuid":"01KJXC936VCX19DEGV02ANJQQD","name":"\u0627\u0644\u0632\u0642\u0627\u0632\u064a\u0642"},{"uuid":"01KJXC937BGGWJWRTTAQ2V39XN","name":"\u0642\u0646\u0627"},{"uuid":"01KJXC937FMQNRFG9ANGXM1G0Y","name":"\u0633\u0648\u0647\u0627\u062c"},{"uuid":"01KJXC937KK7JE7CYDMGQ7CT71","name":"\u0628\u0646\u0647\u0627"},{"uuid":"01KJXC9384977WCPMCSWX3K3W9","name":"\u0643\u0641\u0631 \u0627\u0644\u0634\u064a\u062e"},{"uuid":"01KJXC9389DHBJ7DT2G9C3GF47","name":"\u062f\u0645\u0646\u0647\u0648\u0631"},{"uuid":"01KJXC938D5CPMAKAQH9BVFDEN","name":"\u0627\u0644\u0645\u0646\u064a\u0627"},{"uuid":"01KJXC938Y8VVMYYESK0DKWP9P","name":"\u0628\u0646\u0649 \u0633\u0648\u064a\u0641"},{"uuid":"01KJXC93938FHYVC4WG34CNWFR","name":"\u0627\u0644\u0641\u064a\u0648\u0645"},{"uuid":"01KJXC93980TZTN7KTH49PHJ1D","name":"\u0627\u0644\u0645\u0646\u064a\u0627 \u0627\u0644\u062c\u062f\u064a\u062f\u0629"},{"uuid":"01KJXC939CDFJ3W03J8PYF4DPB","name":"\u0623\u0628\u0648 \u0642\u064a\u0631"},{"uuid":"01KJXC939Y4BX3B37Y8FR7KAT6","name":"\u0625\u062f\u0641\u0648"},{"uuid":"01KJXC93A3RC3P88G71TTPVS57","name":"\u0643\u0648\u0645 \u0623\u0645\u0628\u0648"},{"uuid":"01KJXC93A7D81M67XF5NBMM03H","name":"\u0623\u0633\u0648\u0627\u0646 \u0627\u0644\u062c\u062f\u064a\u062f\u0629"},{"uuid":"01KJXC93ASVQVA7BK6NCCS3T65","name":"\u0627\u0644\u063a\u0631\u062f\u0642\u0629"},{"uuid":"01KJXC93AYK0PZDKT0HJREJTR6","name":"\u0634\u0631\u0645 \u0627\u0644\u0634\u064a\u062e"},{"uuid":"01KJXC93BEYNHHV136096C45DK","name":"\u0645\u0631\u0633\u0649 \u0645\u0637\u0631\u0648\u062d"},{"uuid":"01KJXC93BKWZPMSX05FZV6P29N","name":"\u0627\u0644\u0639\u0631\u064a\u0634"},{"uuid":"01KJXC93BR5SW1VW9YMR549WE5","name":"\u0627\u0644\u0637\u0648\u0631"},{"uuid":"01KJXC93C7E3BZC9ZGR0DYFH27","name":"\u0633\u0641\u0627\u062c\u0627"},{"uuid":"01KJXC93CC07WZCT9GVG2GNMQE","name":"\u0627\u0644\u0645\u0646\u064a\u0627"},{"uuid":"01KJXC93CHXYEAQJX40KKG7HFW","name":"\u0623\u0628\u0648 \u062a\u064a\u062c"},{"uuid":"01KJXC93D2E9ADBC4QJE2FZ6Y8","name":"\u062f\u064a\u0631\u0648\u0637"},{"uuid":"01KJXC93D7VDQ189892Q0EH37S","name":"\u0645\u0644\u0648\u064a"},{"uuid":"01KJXC93DRY9WESZ1Z7F37NV6V","name":"\u0645\u0637\u0627\u064a"},{"uuid":"01KJXC93E1G4J62ZR1VS753GJ3","name":"\u0633\u0645\u0627\u0644\u0648\u0637"},{"uuid":"01KJXC93E6R6KF8HDHQ15B3XVV","name":"\u0623\u0628\u0648 \u0642\u0631\u0642\u0627\u0635"}]}}'
        headers:
          cache-control: 'no-cache, private'
          content-type: application/json
          access-control-allow-origin: '*'
        description: null
    responseFields: []
    auth: []
    controller: null
    method: null
    route: null
  -
    custom: []
    httpMethods:
      - GET
    uri: api/public/cities
    metadata:
      custom: []
      groupName: Public
      groupDescription: ''
      subgroup: Cities
      subgroupDescription: 'List and show cities'
      title: ''
      description: ''
      authenticated: false
      deprecated: false
    headers:
      Content-Type: application/json
      Accept: application/json
      Accept-Language: ar|en
    urlParameters: []
    cleanUrlParameters: []
    queryParameters: []
    cleanQueryParameters: []
    bodyParameters: []
    cleanBodyParameters: []
    fileParameters: []
    responses:
      -
        custom: []
        status: 200
        content: '{"success":true,"data":[{"uuid":"01KJXC933V6FX1KABG1RBN3CRB","name":"\u0627\u0644\u0642\u0627\u0647\u0631\u0629"},{"uuid":"01KJXC9340EX398PREQTGC6FRZ","name":"\u0627\u0644\u0625\u0633\u0643\u0646\u062f\u0631\u064a\u0629"},{"uuid":"01KJXC934H3HC7ZBVD3GADXXA6","name":"\u0627\u0644\u062c\u064a\u0632\u0629"},{"uuid":"01KJXC934PGYK83Y1DVKQ04MB4","name":"\u0634\u0628\u0631\u0627 \u0627\u0644\u062e\u064a\u0645\u0629"},{"uuid":"01KJXC934V02D4D85KC6HWASEP","name":"\u0628\u0648\u0631 \u0633\u0639\u064a\u062f"},{"uuid":"01KJXC934ZKNC4TRX6PSXSH2V1","name":"\u0627\u0644\u0633\u0648\u064a\u0633"},{"uuid":"01KJXC935FG2AK8R3FYHB7N1VF","name":"\u0627\u0644\u0623\u0642\u0635\u0631"},{"uuid":"01KJXC935MGXWRC3V4W0Y59EQZ","name":"\u0623\u0633\u0648\u0627\u0646"},{"uuid":"01KJXC935RGQRZADJNQM63GCCJ","name":"\u0637\u0646\u0637\u0627"},{"uuid":"01KJXC935XZ64Y85AW2X2FD3PZ","name":"\u0627\u0644\u0645\u0646\u0635\u0648\u0631\u0629"},{"uuid":"01KJXC936DQZE3HB47FF19X2J6","name":"\u0623\u0633\u064a\u0648\u0637"},{"uuid":"01KJXC936JN3ETRKB84R4VPFPD","name":"\u0627\u0644\u0625\u0633\u0645\u0627\u0639\u064a\u0644\u064a\u0629"},{"uuid":"01KJXC936QVT7FKKY1G1D28X24","name":"\u062f\u0645\u064a\u0627\u0637"},{"uuid":"01KJXC936VCX19DEGV02ANJQQD","name":"\u0627\u0644\u0632\u0642\u0627\u0632\u064a\u0642"},{"uuid":"01KJXC937BGGWJWRTTAQ2V39XN","name":"\u0642\u0646\u0627"}],"meta":{"pagination":{"current_page":1,"per_page":15,"total":40,"last_page":3}}}'
        headers:
          cache-control: 'no-cache, private'
          content-type: application/json
          access-control-allow-origin: '*'
        description: null
    responseFields: []
    auth: []
    controller: null
    method: null
    route: null
  -
    custom: []
    httpMethods:
      - GET
    uri: 'api/public/cities/{city_uuid}'
    metadata:
      custom: []
      groupName: Public
      groupDescription: ''
      subgroup: Cities
      subgroupDescription: 'List and show cities'
      title: ''
      description: ''
      authenticated: false
      deprecated: false
    headers:
      Content-Type: application/json
      Accept: application/json
      Accept-Language: ar|en
    urlParameters:
      city_uuid:
        custom: []
        name: city_uuid
        description: ''
        required: true
        example: 01KJXC933V6FX1KABG1RBN3CRB
        type: string
        enumValues: []
        exampleWasSpecified: false
        nullable: false
        deprecated: false
    cleanUrlParameters:
      city_uuid: 01KJXC933V6FX1KABG1RBN3CRB
    queryParameters: []
    cleanQueryParameters: []
    bodyParameters: []
    cleanBodyParameters: []
    fileParameters: []
    responses:
      -
        custom: []
        status: 200
        content: '{"success":true,"data":{"uuid":"01KJXC933V6FX1KABG1RBN3CRB","name":"\u0627\u0644\u0642\u0627\u0647\u0631\u0629"}}'
        headers:
          cache-control: 'no-cache, private'
          content-type: application/json
          access-control-allow-origin: '*'
        description: null
    responseFields: []
    auth: []
    controller: null
    method: null
    route: null
  -
    custom: []
    httpMethods:
      - GET
    uri: api/public/providers
    metadata:
      custom: []
      groupName: Public
      groupDescription: ''
      subgroup: Providers
      subgroupDescription: 'List and show providers'
      title: ''
      description: ''
      authenticated: false
      deprecated: false
    headers:
      Content-Type: application/json
      Accept: application/json
      Accept-Language: ar|en
    urlParameters: []
    cleanUrlParameters: []
    queryParameters: []
    cleanQueryParameters: []
    bodyParameters: []
    cleanBodyParameters: []
    fileParameters: []
    responses:
      -
        custom: []
        status: 200
        content: '{"success":true,"data":[],"meta":{"pagination":{"current_page":1,"per_page":15,"total":0,"last_page":1}}}'
        headers:
          cache-control: 'no-cache, private'
          content-type: application/json
          access-control-allow-origin: '*'
        description: null
    responseFields: []
    auth: []
    controller: null
    method: null
    route: null
  -
    custom: []
    httpMethods:
      - GET
    uri: 'api/public/providers/{provider_uuid}'
    metadata:
      custom: []
      groupName: Public
      groupDescription: ''
      subgroup: Providers
      subgroupDescription: 'List and show providers'
      title: ''
      description: ''
      authenticated: false
      deprecated: false
    headers:
      Content-Type: application/json
      Accept: application/json
      Accept-Language: ar|en
    urlParameters:
      provider_uuid:
        custom: []
        name: provider_uuid
        description: ''
        required: true
        example: 66529e01-d113-3473-8d6f-9e11e09332ea
        type: string
        enumValues: []
        exampleWasSpecified: false
        nullable: false
        deprecated: false
    cleanUrlParameters:
      provider_uuid: 66529e01-d113-3473-8d6f-9e11e09332ea
    queryParameters: []
    cleanQueryParameters: []
    bodyParameters: []
    cleanBodyParameters: []
    fileParameters: []
    responses:
      -
        custom: []
        status: 404
        content: '{"success":false,"message":"\u063a\u064a\u0631 \u0645\u0648\u062c\u0648\u062f"}'
        headers:
          cache-control: 'no-cache, private'
          content-type: application/json
          access-control-allow-origin: '*'
        description: null
    responseFields: []
    auth: []
    controller: null
    method: null
    route: null
  -
    custom: []
    httpMethods:
      - GET
    uri: api/public/provider-branches
    metadata:
      custom: []
      groupName: Public
      groupDescription: ''
      subgroup: 'Provider Branches'
      subgroupDescription: 'List and show provider branches'
      title: ''
      description: ''
      authenticated: false
      deprecated: false
    headers:
      Content-Type: application/json
      Accept: application/json
      Accept-Language: ar|en
    urlParameters: []
    cleanUrlParameters: []
    queryParameters: []
    cleanQueryParameters: []
    bodyParameters: []
    cleanBodyParameters: []
    fileParameters: []
    responses:
      -
        custom: []
        status: 200
        content: '{"success":true,"data":[],"meta":{"pagination":{"current_page":1,"per_page":15,"total":0,"last_page":1}}}'
        headers:
          cache-control: 'no-cache, private'
          content-type: application/json
          access-control-allow-origin: '*'
        description: null
    responseFields: []
    auth: []
    controller: null
    method: null
    route: null
  -
    custom: []
    httpMethods:
      - GET
    uri: 'api/public/provider-branches/{branch_uuid}'
    metadata:
      custom: []
      groupName: Public
      groupDescription: ''
      subgroup: 'Provider Branches'
      subgroupDescription: 'List and show provider branches'
      title: ''
      description: ''
      authenticated: false
      deprecated: false
    headers:
      Content-Type: application/json
      Accept: application/json
      Accept-Language: ar|en
    urlParameters:
      branch_uuid:
        custom: []
        name: branch_uuid
        description: ''
        required: true
        example: 66529e01-d113-3473-8d6f-9e11e09332ea
        type: string
        enumValues: []
        exampleWasSpecified: false
        nullable: false
        deprecated: false
    cleanUrlParameters:
      branch_uuid: 66529e01-d113-3473-8d6f-9e11e09332ea
    queryParameters: []
    cleanQueryParameters: []
    bodyParameters: []
    cleanBodyParameters: []
    fileParameters: []
    responses:
      -
        custom: []
        status: 404
        content: '{"success":false,"message":"\u063a\u064a\u0631 \u0645\u0648\u062c\u0648\u062f"}'
        headers:
          cache-control: 'no-cache, private'
          content-type: application/json
          access-control-allow-origin: '*'
        description: null
    responseFields: []
    auth: []
    controller: null
    method: null
    route: null
  -
    custom: []
    httpMethods:
      - GET
    uri: api/public/services
    metadata:
      custom: []
      groupName: Public
      groupDescription: ''
      subgroup: Services
      subgroupDescription: 'List and show active services'
      title: ''
      description: ''
      authenticated: false
      deprecated: false
    headers:
      Accept-Language: ar|en
      Content-Type: application/json
      Accept: application/json
    urlParameters: []
    cleanUrlParameters: []
    queryParameters:
      provider_uuid:
        custom: []
        name: provider_uuid
        description: 'Filter by provider UUID'
        required: false
        example: 66529e01-d113-3473-8d6f-9e11e09332ea
        type: string
        enumValues: []
        exampleWasSpecified: false
        nullable: false
        deprecated: false
      sub_category_uuid:
        custom: []
        name: sub_category_uuid
        description: 'Filter by subcategory UUID'
        required: false
        example: 66529e01-d113-3473-8d6f-9e11e09332ea
        type: string
        enumValues: []
        exampleWasSpecified: false
        nullable: false
        deprecated: false
      search:
        custom: []
        name: search
        description: 'Search in service name/description (ar/en)'
        required: false
        example: consequatur
        type: string
        enumValues: []
        exampleWasSpecified: false
        nullable: false
        deprecated: false
      per_page:
        custom: []
        name: per_page
        description: 'Items per page'
        required: false
        example: 15
        type: integer
        enumValues: []
        exampleWasSpecified: false
        nullable: false
        deprecated: false
    cleanQueryParameters:
      provider_uuid: 66529e01-d113-3473-8d6f-9e11e09332ea
      sub_category_uuid: 66529e01-d113-3473-8d6f-9e11e09332ea
      search: consequatur
      per_page: 15
    bodyParameters:
      provider_uuid:
        custom: []
        name: provider_uuid
        description: 'Filter by provider UUID.'
        required: false
        example: 123e4567-e89b-12d3-a456-426614174000
        type: string
        enumValues: []
        exampleWasSpecified: false
        nullable: true
        deprecated: false
      sub_category_uuid:
        custom: []
        name: sub_category_uuid
        description: 'Filter by subcategory UUID.'
        required: false
        example: 123e4567-e89b-12d3-a456-426614174111
        type: string
        enumValues: []
        exampleWasSpecified: false
        nullable: true
        deprecated: false
      search:
        custom: []
        name: search
        description: 'Search term for service name/description. يجب ألا يزيد حقل value عن 255 حرف.'
        required: false
        example: delivery
        type: string
        enumValues: []
        exampleWasSpecified: false
        nullable: true
        deprecated: false
      per_page:
        custom: []
        name: per_page
        description: 'Items per page (1-100). يجب ألا يقل حقل value عن 1. يجب ألا يزيد حقل value عن 100.'
        required: false
        example: 15
        type: integer
        enumValues: []
        exampleWasSpecified: false
        nullable: true
        deprecated: false
    cleanBodyParameters:
      provider_uuid: 123e4567-e89b-12d3-a456-426614174000
      sub_category_uuid: 123e4567-e89b-12d3-a456-426614174111
      search: delivery
      per_page: 15
    fileParameters: []
    responses:
      -
        custom: []
        status: 200
        content: '{"success":true,"data":[],"meta":{"pagination":{"current_page":1,"per_page":15,"total":0,"last_page":1}}}'
        headers: []
        description: ''
    responseFields: []
    auth: []
    controller: null
    method: null
    route: null
  -
    custom: []
    httpMethods:
      - GET
    uri: 'api/public/services/{uuid}'
    metadata:
      custom: []
      groupName: Public
      groupDescription: ''
      subgroup: Services
      subgroupDescription: 'List and show active services'
      title: ''
      description: ''
      authenticated: false
      deprecated: false
    headers:
      Accept-Language: ar|en
      Content-Type: application/json
      Accept: application/json
    urlParameters:
      uuid:
        custom: []
        name: uuid
        description: ''
        required: true
        example: 66529e01-d113-3473-8d6f-9e11e09332ea
        type: string
        enumValues: []
        exampleWasSpecified: false
        nullable: false
        deprecated: false
    cleanUrlParameters:
      uuid: 66529e01-d113-3473-8d6f-9e11e09332ea
    queryParameters: []
    cleanQueryParameters: []
    bodyParameters: []
    cleanBodyParameters: []
    fileParameters: []
    responses:
      -
        custom: []
        status: 200
        content: '{"success":true,"data":{"uuid":"<ULID>"}}'
        headers: []
        description: ''
      -
        custom: []
        status: 404
        content: '{"success":false,"message":"\u063a\u064a\u0631 \u0645\u0648\u062c\u0648\u062f"}'
        headers: []
        description: ''
    responseFields: []
    auth: []
    controller: null
    method: null
    route: null
